2
  1
    8
      -50 150
      -150 50
      -150 -50
      -50 -150
      -50 -125
      -125 -50
      -125 50
      -50 125
  1
    8
      50 -150
      150 -50
      150 50
      50 150
      50 125
      125 50
      125 -50
      50 -125
